%!PS-Adobe-2.0 EPSF-2.0
%%Creator: SM
%%BoundingBox: 18 144 592 718
%%DocumentFonts: Helvetica
%%EndComments
 20 dict begin
72 300 div dup scale
1 setlinejoin 0 setlinecap
/Helvetica findfont 55 scalefont setfont 
/B {CS newpath moveto} def
/F {moveto 0 setlinecap} def
/C {CS M 1 1 3 {pop 3 1 roll 255 div} for SET_COLOUR} def
/CS {currentpoint stroke} def
/CF {currentpoint eofill} def
/L {lineto} def /l {rlineto} def /M {moveto} def /m {rmoveto} def
/P {moveto 0 1 rlineto stroke} def
/T {currentlinecap exch 1 setlinecap show setlinecap} def
errordict /nocurrentpoint {pop 0 0 M currentpoint} put
/SET_COLOUR statusdict begin /processcolors where
  {pop processcolors 1 gt} {false} ifelse
  {(setrgbcolor)} {(pop pop pop)} ifelse cvx end def
 80 600 translate
gsave
CS [] 0 setdash M
CS M 1 100 mul 72 div dup setlinewidth
/P [ /moveto cvx 0 5 -1 roll .05 add dup -2 div 0 exch /rmoveto cvx /rlineto cvx /stroke cvx ] cvx def
 0 0 0 C
CS M 5 100 mul 72 div dup setlinewidth
/P [ /moveto cvx 0 5 -1 roll .05 add dup -2 div 0 exch /rmoveto cvx /rlineto cvx /stroke cvx ] cvx def
 0 0 0 C
CS [] 0 setdash M
255 255 M 2006 0 l
0 2006 l
255 2261 L
255 255 L
2006 0 l
255 255 M 2006 0 l
255 255 M 0 52 l
209 -52 m 0 26 l
209 -26 m 0 26 l
209 -26 m 0 52 l
209 -52 m 0 26 l
209 -26 m 0 26 l
209 -26 m 0 52 l
209 -52 m 0 26 l
209 -26 m 0 26 l
209 -26 m 0 52 l
255 2261 M 2006 0 l
255 2261 M 0 -51 l
209 51 m 0 -26 l
209 26 m 0 -26 l
209 26 m 0 -51 l
209 51 m 0 -26 l
209 26 m 0 -26 l
209 26 m 0 -51 l
209 51 m 0 -26 l
209 26 m 0 -26 l
209 26 m 0 -51 l
255 255 M 0 2006 l
255 351 M 52 0 l
-52 159 m 26 0 l
-26 159 m 26 0 l
-26 159 m 52 0 l
-52 160 m 26 0 l
-26 159 m 26 0 l
-26 159 m 52 0 l
-52 159 m 26 0 l
-26 159 m 26 0 l
-26 159 m 52 0 l
-52 160 m 26 0 l
-26 159 m 26 0 l
-26 159 m 52 0 l
2261 255 M 0 2006 l
2261 351 M -51 0 l
51 159 m -26 0 l
26 159 m -26 0 l
26 159 m -51 0 l
51 160 m -26 0 l
26 159 m -26 0 l
26 159 m -51 0 l
51 159 m -26 0 l
26 159 m -26 0 l
26 159 m -51 0 l
51 160 m -26 0 l
26 159 m -26 0 l
26 159 m -51 0 l
CS [] 0 setdash M
CS [] 0 setdash M
144 210 M 5 3 l
7 7 l
0 -51 l
-2 48 m 0 -48 l
-10 0 m 22 0 l
19 51 m 0 -15 l
0 5 m 3 5 l
4 5 l
5 0 l
12 -7 l
5 0 l
3 2 l
2 5 l
-31 -5 m 4 2 l
5 0 l
12 -4 l
10 7 m 0 -7 l
-2 -8 l
-10 -12 l
-2 -4 l
-3 -8 l
0 -12 l
15 36 m -12 -12 l
-3 -4 l
-2 -8 l
0 -12 l
38 34 m -2 -2 l
2 -3 l
3 3 l
-3 2 l
0 -29 m -2 -2 l
2 -3 l
3 3 l
-3 2 l
22 36 m 2 -2 l
-2 -3 l
-3 3 l
0 2 l
3 5 l
2 2 l
8 3 l
9 0 l
7 -3 l
3 -4 l
0 -8 l
-3 -4 l
-7 -3 l
-7 0 l
7 22 m 5 -3 l
2 -4 l
0 -8 l
-2 -4 l
-5 -3 l
5 -2 l
5 -5 l
2 -5 l
0 -7 l
-2 -5 l
-3 -2 l
-7 -3 l
-9 0 l
-8 3 l
-2 2 l
-3 5 l
0 2 l
3 3 l
2 -3 l
-2 -2 l
26 14 m 3 -7 l
0 -7 l
-3 -5 l
-2 -2 l
-5 -3 l
58 34 m -3 -7 l
-4 -5 l
-8 -2 l
-2 0 l
-7 2 l
-5 5 l
-2 7 l
0 2 l
2 8 l
5 4 l
7 3 l
5 0 l
7 -3 l
5 -4 l
2 -8 l
0 -14 l
-2 -10 l
-3 -4 l
-4 -5 l
-8 -3 l
-7 0 l
-5 3 l
-2 5 l
0 2 l
2 2 l
3 -2 l
-3 -2 l
10 12 m -5 2 l
-5 5 l
-2 7 l
0 2 l
2 8 l
5 4 l
5 3 l
5 0 m 5 -3 l
4 -4 l
3 -8 l
0 -14 l
-3 -10 l
-2 -4 l
-5 -5 l
-5 -3 l
CS [] 0 setdash M
CS [] 0 setdash M
708 210 M 5 3 l
7 7 l
0 -51 l
-2 48 m 0 -48 l
-10 0 m 22 0 l
19 51 m 0 -15 l
0 5 m 3 5 l
5 5 l
4 0 l
12 -7 l
5 0 l
3 2 l
2 5 l
-31 -5 m 5 2 l
4 0 l
12 -4 l
10 7 m 0 -7 l
-2 -8 l
-10 -12 l
-2 -4 l
-3 -8 l
0 -12 l
15 36 m -12 -12 l
-3 -4 l
-2 -8 l
0 -12 l
38 34 m -2 -2 l
2 -3 l
3 3 l
-3 2 l
0 -29 m -2 -2 l
2 -3 l
3 3 l
-3 2 l
22 36 m 2 -2 l
-2 -3 l
-2 3 l
0 2 l
2 5 l
2 2 l
8 3 l
9 0 l
7 -3 l
3 -4 l
0 -8 l
-3 -4 l
-7 -3 l
-7 0 l
7 22 m 5 -3 l
2 -4 l
0 -8 l
-2 -4 l
-5 -3 l
5 -2 l
5 -5 l
2 -5 l
0 -7 l
-2 -5 l
-3 -2 l
-7 -3 l
-9 0 l
-8 3 l
-2 2 l
-2 5 l
0 2 l
2 3 l
2 -3 l
-2 -2 l
26 14 m 3 -7 l
0 -7 l
-3 -5 l
-2 -2 l
-5 -3 l
56 44 m -3 -3 l
3 -2 l
2 2 l
0 3 l
-2 4 l
-5 3 l
-7 0 l
-8 -3 l
-4 -4 l
-3 -5 l
-2 -10 l
0 -14 l
2 -7 l
5 -5 l
7 -3 l
5 0 l
7 3 l
5 5 l
2 7 l
0 2 l
-2 7 l
-5 5 l
-7 3 l
-2 0 l
-8 -3 l
-4 -5 l
-3 -7 l
15 34 m -5 -3 l
-5 -4 l
-2 -5 l
-3 -10 l
0 -14 l
3 -7 l
4 -5 l
5 -3 l
5 0 m 5 3 l
5 5 l
2 7 l
0 2 l
-2 7 l
-5 5 l
-5 3 l
34 2 m -3 -2 l
3 -3 l
2 3 l
-2 2 l
0 -29 m -3 -2 l
3 -3 l
2 3 l
-2 2 l
33 46 m -7 -3 l
-5 -7 l
-2 -12 l
0 -7 l
2 -12 l
5 -7 l
7 -3 l
CS M
5 0 l
7 3 l
5 7 l
3 12 l
0 7 l
-3 12 l
-5 7 l
-7 3 l
-5 0 l
-4 -3 l
-3 -2 l
-2 -5 l
-3 -12 l
0 -7 l
3 -12 l
2 -5 l
3 -2 l
4 -3 l
5 0 m 5 3 l
2 2 l
3 5 l
2 12 l
0 7 l
-2 12 l
-3 5 l
-2 2 l
-5 3 l
43 0 m -7 -3 l
-5 -7 l
-2 -12 l
0 -7 l
2 -12 l
5 -7 l
7 -3 l
5 0 l
8 3 l
4 7 l
3 12 l
0 7 l
-3 12 l
-4 7 l
-8 3 l
-5 0 l
-4 -3 l
-3 -2 l
-2 -5 l
-3 -12 l
0 -7 l
3 -12 l
2 -5 l
3 -2 l
4 -3 l
5 0 m 5 3 l
3 2 l
2 5 l
2 12 l
0 7 l
-2 12 l
-2 5 l
-3 2 l
-5 3 l
CS [] 0 setdash M
CS [] 0 setdash M
1335 210 M 5 3 l
7 7 l
0 -51 l
-2 48 m 0 -48 l
-10 0 m 22 0 l
19 51 m 0 -15 l
0 5 m 3 5 l
4 5 l
5 0 l
12 -7 l
5 0 l
2 2 l
3 5 l
-31 -5 m 4 2 l
5 0 l
12 -4 l
10 7 m 0 -7 l
-3 -8 l
-9 -12 l
-3 -4 l
-2 -8 l
0 -12 l
14 36 m -12 -12 l
-2 -4 l
-2 -8 l
0 -12 l
38 34 m -2 -2 l
2 -3 l
3 3 l
-3 2 l
0 -29 m -2 -2 l
2 -3 l
3 3 l
-3 2 l
22 36 m 2 -2 l
-2 -3 l
-3 3 l
0 2 l
3 5 l
2 2 l
7 3 l
10 0 l
7 -3 l
3 -4 l
0 -8 l
-3 -4 l
-7 -3 l
-7 0 l
7 22 m 5 -3 l
2 -4 l
0 -8 l
-2 -4 l
-5 -3 l
5 -2 l
5 -5 l
2 -5 l
0 -7 l
-2 -5 l
-3 -2 l
-7 -3 l
-10 0 l
-7 3 l
-2 2 l
-3 5 l
0 2 l
3 3 l
2 -3 l
-2 -2 l
26 14 m 3 -7 l
0 -7 l
-3 -5 l
-2 -2 l
-5 -3 l
29 41 m 2 -2 l
-2 -3 l
-2 3 l
0 2 l
2 5 l
2 2 l
8 3 l
9 0 l
7 -3 l
3 -4 l
0 -8 l
-3 -4 l
-7 -3 l
-7 0 l
7 22 m 5 -3 l
2 -4 l
0 -8 l
-2 -4 l
-5 -3 l
5 -2 l
5 -5 l
2 -5 l
0 -7 l
-2 -5 l
-3 -2 l
-7 -3 l
-9 0 l
-8 3 l
-2 2 l
-2 5 l
0 2 l
2 3 l
2 -3 l
-2 -2 l
26 14 m 3 -7 l
0 -7 l
-3 -5 l
-2 -2 l
-5 -3 l
31 34 m -2 -2 l
2 -3 l
3 3 l
-3 2 l
0 -29 m -2 -2 l
2 -3 l
3 3 l
-3 2 l
34 46 m -7 -3 l
-5 -7 l
-2 -12 l
0 -7 l
2 -12 l
5 -7 l
7 -3 l
5 0 l
7 3 l
5 7 l
2 12 l
0 7 l
-2 12 l
-5 7 l
-7 3 l
-5 0 l
-5 -3 l
-2 -2 l
-2 -5 l
-3 -12 l
0 -7 l
3 -12 l
2 -5 l
2 -2 l
5 -3 l
5 0 m 5 3 l
2 2 l
3 5 l
2 12 l
0 7 l
-2 12 l
-3 5 l
-2 2 l
-5 3 l
43 0 m -7 -3 l
-5 -7 l
-2 -12 l
0 -7 l
2 -12 l
5 -7 l
7 -3 l
5 0 l
7 3 l
5 7 l
3 12 l
0 7 l
-3 12 l
-5 7 l
-7 3 l
-5 0 l
-5 -3 l
-2 -2 l
-2 -5 l
-3 -12 l
0 -7 l
3 -12 l
2 -5 l
2 -2 l
5 -3 l
5 0 m 5 3 l
2 2 l
3 5 l
2 12 l
0 7 l
-2 12 l
-3 5 l
-2 2 l
-5 3 l
CS [] 0 setdash M
CS [] 0 setdash M
1962 210 M 5 3 l
7 7 l
0 -51 l
-2 48 m 0 -48 l
-10 0 m 22 0 l
19 51 m 0 -15 l
0 5 m 2 5 l
5 5 l
5 0 l
12 -7 l
5 0 l
2 2 l
3 5 l
-32 -5 m 5 2 l
5 0 l
12 -4 l
10 7 m 0 -7 l
-3 -8 l
-9 -12 l
-3 -4 l
-2 -8 l
0 -12 l
14 36 m -12 -12 l
-2 -4 l
-3 -8 l
0 -12 l
39 34 m -2 -2 l
2 -3 l
2 3 l
-2 2 l
0 -29 m -2 -2 l
2 -3 l
2 3 l
-2 2 l
22 36 m 2 -2 l
-2 -3 l
-3 3 l
0 2 l
3 5 l
2 2 l
7 3 l
10 0 l
7 -3 l
2 -4 l
0 -8 l
-2 -4 l
-7 -3 l
-7 0 l
7 22 m 5 -3 l
2 -4 l
0 -8 l
CS M
-2 -4 l
-5 -3 l
5 -2 l
4 -5 l
3 -5 l
0 -7 l
-3 -5 l
-2 -2 l
-7 -3 l
-10 0 l
-7 3 l
-2 2 l
-3 5 l
0 2 l
3 3 l
2 -3 l
-2 -2 l
26 14 m 2 -7 l
0 -7 l
-2 -5 l
-2 -2 l
-5 -3 l
41 51 m -7 -3 l
-5 -7 l
-3 -12 l
0 -7 l
3 -12 l
5 -7 l
7 -3 l
5 0 l
7 3 l
5 7 l
2 12 l
0 7 l
-2 12 l
-5 7 l
-7 3 l
-5 0 l
-5 -3 l
-2 -2 l
-3 -5 l
-2 -12 l
0 -7 l
2 -12 l
3 -5 l
2 -2 l
5 -3 l
5 0 m 4 3 l
3 2 l
2 5 l
3 12 l
0 7 l
-3 12 l
-2 5 l
-3 2 l
-4 3 l
33 -17 m -2 -2 l
2 -3 l
3 3 l
-3 2 l
0 -29 m -2 -2 l
2 -3 l
3 3 l
-3 2 l
34 46 m -7 -3 l
-5 -7 l
-2 -12 l
0 -7 l
2 -12 l
5 -7 l
7 -3 l
5 0 l
7 3 l
5 7 l
2 12 l
0 7 l
-2 12 l
-5 7 l
-7 3 l
-5 0 l
-5 -3 l
-2 -2 l
-3 -5 l
-2 -12 l
0 -7 l
2 -12 l
3 -5 l
2 -2 l
5 -3 l
5 0 m 5 3 l
2 2 l
2 5 l
3 12 l
0 7 l
-3 12 l
-2 5 l
-2 2 l
-5 3 l
43 0 m -7 -3 l
-5 -7 l
-2 -12 l
0 -7 l
2 -12 l
5 -7 l
7 -3 l
5 0 l
7 3 l
5 7 l
2 12 l
0 7 l
-2 12 l
-5 7 l
-7 3 l
-5 0 l
-5 -3 l
-2 -2 l
-2 -5 l
-3 -12 l
0 -7 l
3 -12 l
2 -5 l
2 -2 l
5 -3 l
5 0 m 5 3 l
2 2 l
3 5 l
2 12 l
0 7 l
-2 12 l
-3 5 l
-2 2 l
-5 3 l
CS [] 0 setdash M
CS [] 0 setdash M
171 265 M 0 43 l
-19 19 m 2 3 l
2 -3 l
-2 -2 l
-2 0 l
-5 2 l
-3 3 l
-2 7 l
0 10 l
2 7 l
5 2 l
7 0 l
5 -2 l
3 -7 l
0 -8 l
-22 8 m 2 4 l
5 3 l
7 0 l
5 -3 l
3 -4 l
2 4 l
5 5 l
5 3 l
7 0 l
5 -3 l
2 -2 l
3 -7 l
0 -10 l
-3 -7 l
-2 -3 l
-5 -2 l
-2 0 l
-3 2 l
3 3 l
2 -3 l
-15 27 m 8 2 l
7 0 l
5 -2 l
2 -3 l
3 -4 l
-46 48 m 46 0 l
-51 2 m 51 0 l
-51 0 m 36 -26 l
0 38 l
15 -21 m 0 16 l
CS [] 0 setdash M
CS [] 0 setdash M
171 599 M 0 44 l
-19 19 m 2 2 l
2 -2 l
-2 -3 l
-2 0 l
-5 3 l
-3 2 l
-2 7 l
0 10 l
2 7 l
5 3 l
7 0 l
5 -3 l
3 -7 l
0 -7 l
-22 7 m 2 5 l
5 2 l
7 0 l
5 -2 l
3 -5 l
2 5 l
5 5 l
5 2 l
7 0 l
5 -2 l
2 -3 l
3 -7 l
0 -10 l
-3 -7 l
-2 -2 l
-5 -3 l
-2 0 l
-3 3 l
3 2 l
2 -2 l
-15 26 m 8 3 l
7 0 l
5 -3 l
2 -2 l
3 -5 l
-41 29 m 2 2 l
2 -2 l
-2 -3 l
-2 0 l
-5 3 l
-3 2 l
-2 8 l
0 9 l
2 7 l
5 3 l
7 0 l
5 -3 l
3 -7 l
0 -7 l
-22 7 m 2 5 l
5 2 l
7 0 l
5 -2 l
3 -5 l
2 5 l
5 5 l
5 2 l
7 0 l
5 -2 l
2 -3 l
3 -7 l
0 -9 l
-3 -8 l
-2 -2 l
-5 -3 l
-2 0 l
-3 3 l
3 2 l
2 -2 l
-15 26 m 8 3 l
7 0 l
5 -3 l
2 -2 l
3 -5 l
-34 31 m 2 -2 l
3 2 l
-3 3 l
-2 -3 l
29 0 m 2 -2 l
3 2 l
-3 3 l
-2 -3 l
-36 22 m 2 3 l
2 -3 l
-2 -2 l
-2 0 l
-5 2 l
-3 3 l
-2 7 l
0 9 l
2 8 l
5 2 l
7 0 l
5 -2 l
3 -8 l
0 -7 l
-22 7 m 2 5 l
5 3 l
7 0 l
5 -3 l
3 -5 l
2 5 l
5 5 l
5 2 l
7 0 l
5 -2 l
2 -2 l
3 -8 l
0 -9 l
-3 -7 l
-2 -3 l
-5 -2 l
-2 0 l
-3 2 l
3 3 l
2 -3 l
-15 27 m 8 2 l
7 0 l
CS M
5 -2 l
2 -3 l
3 -5 l
-51 41 m 2 -7 l
8 -5 l
12 -2 l
7 0 l
12 2 l
7 5 l
3 7 l
0 5 l
-3 7 l
-7 5 l
-12 3 l
-7 0 l
-12 -3 l
-8 -5 l
-2 -7 l
0 -5 l
2 -5 l
3 -2 l
5 -2 l
12 -3 l
7 0 l
12 3 l
5 2 l
2 2 l
3 5 l
0 5 m -3 5 l
-2 2 l
-5 3 l
-12 2 l
-7 0 l
-12 -2 l
-5 -3 l
-3 -2 l
-2 -5 l
17 34 m 2 -3 l
3 3 l
-3 2 l
-2 -2 l
29 0 m 2 -3 l
3 3 l
-3 2 l
-2 -2 l
-46 33 m 2 -7 l
8 -5 l
12 -2 l
7 0 l
12 2 l
7 5 l
3 7 l
0 5 l
-3 8 l
-7 4 l
-12 3 l
-7 0 l
-12 -3 l
-8 -4 l
-2 -8 l
0 -5 l
2 -4 l
3 -3 l
5 -2 l
12 -3 l
7 0 l
12 3 l
5 2 l
2 3 l
3 4 l
0 5 m -3 5 l
-2 3 l
-5 2 l
-12 2 l
-7 0 l
-12 -2 l
-5 -2 l
-3 -3 l
-2 -5 l
0 44 m 2 -8 l
8 -4 l
12 -3 l
7 0 l
12 3 l
7 4 l
3 8 l
0 4 l
-3 8 l
-7 4 l
-12 3 l
-7 0 l
-12 -3 l
-8 -4 l
-2 -8 l
0 -4 l
2 -5 l
3 -3 l
5 -2 l
12 -2 l
7 0 l
12 2 l
5 2 l
2 3 l
3 5 l
0 4 m -3 5 l
-2 3 l
-5 2 l
-12 2 l
-7 0 l
-12 -2 l
-5 -2 l
-3 -3 l
-2 -5 l
CS [] 0 setdash M
CS [] 0 setdash M
171 1220 M 0 43 l
-19 20 m 2 2 l
2 -2 l
-2 -3 l
-2 0 l
-5 3 l
-3 2 l
-2 7 l
0 10 l
2 7 l
5 2 l
7 0 l
5 -2 l
3 -7 l
0 -7 l
-22 7 m 2 5 l
5 2 l
7 0 l
5 -2 l
3 -5 l
2 5 l
5 4 l
5 3 l
7 0 l
5 -3 l
2 -2 l
3 -7 l
0 -10 l
-3 -7 l
-2 -2 l
-5 -3 l
-2 0 l
-3 3 l
3 2 l
2 -2 l
-15 26 m 8 2 l
7 0 l
5 -2 l
2 -2 l
3 -5 l
-41 29 m 2 2 l
2 -2 l
-2 -3 l
-2 0 l
-5 3 l
-3 2 l
-2 7 l
0 10 l
2 7 l
5 3 l
7 0 l
5 -3 l
3 -7 l
0 -7 l
-22 7 m 2 5 l
5 2 l
7 0 l
5 -2 l
3 -5 l
2 5 l
5 5 l
5 2 l
7 0 l
5 -2 l
2 -3 l
3 -7 l
0 -10 l
-3 -7 l
-2 -2 l
-5 -3 l
-2 0 l
-3 3 l
3 2 l
2 -2 l
-15 26 m 8 3 l
7 0 l
5 -3 l
2 -2 l
3 -5 l
CS [] 0 setdash M
CS [] 0 setdash M
171 1554 M 0 44 l
-19 19 m 2 2 l
2 -2 l
-2 -3 l
-2 0 l
-5 3 l
-3 2 l
-2 7 l
0 10 l
2 7 l
5 3 l
7 0 l
5 -3 l
3 -7 l
0 -7 l
-22 7 m 2 5 l
5 2 l
7 0 l
5 -2 l
3 -5 l
2 5 l
5 5 l
5 2 l
7 0 l
5 -2 l
2 -3 l
3 -7 l
0 -10 l
-3 -7 l
-2 -2 l
-5 -3 l
-2 0 l
-3 3 l
3 2 l
2 -2 l
-15 26 m 8 3 l
7 0 l
5 -3 l
2 -2 l
3 -5 l
-41 29 m 2 2 l
2 -2 l
-2 -2 l
-2 0 l
-5 2 l
-3 2 l
-2 8 l
0 9 l
2 7 l
3 3 l
5 2 l
4 0 l
5 -2 l
5 -7 l
5 -12 l
2 -5 l
5 -5 l
7 -2 l
8 0 l
-51 21 m 2 5 l
3 2 l
5 3 l
4 0 l
5 -3 l
5 -7 l
5 -9 l
17 -12 m -3 2 l
0 5 l
5 12 l
0 7 l
-2 5 l
-3 2 l
0 -26 m 8 12 l
0 9 l
-3 3 l
-5 2 l
-4 0 l
-22 20 m 2 -3 l
3 3 l
-3 2 l
-2 -2 l
29 0 m 2 -3 l
3 3 l
-3 2 l
-2 -2 l
-36 21 m 2 3 l
2 -3 l
-2 -2 l
-2 0 l
-5 2 l
-3 3 l
-2 7 l
0 9 l
2 8 l
5 2 l
7 0 l
5 -2 l
3 -8 l
0 -7 l
-22 7 m 2 5 l
5 3 l
7 0 l
5 -3 l
3 -5 l
2 5 l
5 5 l
5 3 l
7 0 l
CS M
5 -3 l
2 -2 l
3 -8 l
0 -9 l
-3 -7 l
-2 -3 l
-5 -2 l
-2 0 l
-3 2 l
3 3 l
2 -3 l
-15 27 m 8 2 l
7 0 l
5 -2 l
2 -3 l
3 -5 l
-51 41 m 2 -7 l
8 -5 l
12 -2 l
7 0 l
12 2 l
7 5 l
3 7 l
0 5 l
-3 7 l
-7 5 l
-12 3 l
-7 0 l
-12 -3 l
-8 -5 l
-2 -7 l
0 -5 l
2 -4 l
3 -3 l
5 -2 l
12 -3 l
7 0 l
12 3 l
5 2 l
2 3 l
3 4 l
0 5 m -3 5 l
-2 2 l
-5 3 l
-12 2 l
-7 0 l
-12 -2 l
-5 -3 l
-3 -2 l
-2 -5 l
17 34 m 2 -3 l
3 3 l
-3 2 l
-2 -2 l
29 0 m 2 -3 l
3 3 l
-3 2 l
-2 -2 l
-46 34 m 2 -8 l
8 -4 l
12 -3 l
7 0 l
12 3 l
7 4 l
3 8 l
0 4 l
-3 8 l
-7 4 l
-12 3 l
-7 0 l
-12 -3 l
-8 -4 l
-2 -8 l
0 -4 l
2 -5 l
3 -3 l
5 -2 l
12 -2 l
7 0 l
12 2 l
5 2 l
2 3 l
3 5 l
0 4 m -3 5 l
-2 3 l
-5 2 l
-12 2 l
-7 0 l
-12 -2 l
-5 -2 l
-3 -3 l
-2 -5 l
0 44 m 2 -7 l
8 -5 l
12 -3 l
7 0 l
12 3 l
7 5 l
3 7 l
0 5 l
-3 7 l
-7 5 l
-12 2 l
-7 0 l
-12 -2 l
-8 -5 l
-2 -7 l
0 -5 l
2 -5 l
3 -2 l
5 -3 l
12 -2 l
7 0 l
12 2 l
5 3 l
2 2 l
3 5 l
0 5 m -3 4 l
-2 3 l
-5 2 l
-12 3 l
-7 0 l
-12 -3 l
-5 -2 l
-3 -3 l
-2 -4 l
CS [] 0 setdash M
CS [] 0 setdash M
171 2175 M 0 43 l
-19 20 m 2 2 l
2 -2 l
-2 -3 l
-2 0 l
-5 3 l
-3 2 l
-2 7 l
0 10 l
2 7 l
5 3 l
7 0 l
5 -3 l
3 -7 l
0 -7 l
-22 7 m 2 5 l
5 2 l
7 0 l
5 -2 l
3 -5 l
2 5 l
5 5 l
5 2 l
7 0 l
5 -2 l
2 -3 l
3 -7 l
0 -10 l
-3 -7 l
-2 -2 l
-5 -3 l
-2 0 l
-3 3 l
3 2 l
2 -2 l
-15 26 m 8 3 l
7 0 l
5 -3 l
2 -2 l
3 -5 l
-41 29 m 2 2 l
2 -2 l
-2 -3 l
-2 0 l
-5 3 l
-3 2 l
-2 7 l
0 10 l
2 7 l
3 3 l
5 2 l
4 0 l
5 -2 l
5 -7 l
5 -13 l
2 -4 l
5 -5 l
7 -3 l
8 0 l
-51 22 m 2 5 l
3 2 l
5 3 l
4 0 l
5 -3 l
5 -7 l
5 -10 l
17 -12 m -3 3 l
0 5 l
5 12 l
0 7 l
-2 5 l
-3 2 l
0 -26 m 8 12 l
0 9 l
-3 3 l
-5 2 l
-4 0 l
CS [] 0 setdash M
CS [] 0 setdash M
1040 36 M 12 50 m 1052 36 L
3 50 m 1055 36 L
-10 50 m 29 0 l
7 -2 l
3 -2 l
2 -5 l
0 -5 l
-2 -5 l
-3 -2 l
-7 -3 l
-19 0 l
19 24 m 5 -2 l
2 -2 l
3 -5 l
0 -5 l
-3 -5 l
-2 -2 l
-5 -3 l
-29 -26 m 17 0 l
5 26 m 5 -2 l
2 -3 l
7 -16 l
3 -3 l
2 0 l
2 3 l
-16 19 m 2 -5 l
5 -17 l
2 -2 l
5 0 l
2 5 l
0 2 l
29 43 m 1100 36 L
17 50 m 1134 36 L
-17 43 m 1132 36 L
-27 14 m 22 0 l
-31 -14 m 14 0 l
15 0 m 14 0 l
67 60 m -4 -5 l
-5 -7 l
-5 -10 l
-2 -12 l
0 -9 l
2 -12 l
5 -10 l
5 -7 l
4 -5 l
-4 72 m -5 -9 l
-3 -8 l
-2 -12 l
0 -9 l
2 -12 l
3 -8 l
5 -9 l
36 62 m 0 -41 l
-3 -7 l
-5 -2 l
-4 0 l
-5 2 l
-3 5 l
0 5 l
3 2 l
2 -2 l
-2 -3 l
14 41 m 0 -41 l
-2 -7 l
-3 -2 l
-2 50 m 17 0 l
14 -9 m 3 -3 l
-3 -2 l
-2 2 l
0 3 l
2 5 l
3 2 l
7 2 l
10 0 l
7 -2 l
2 -2 l
3 -5 l
0 -5 l
-3 -5 l
-7 -5 l
-12 -5 l
-5 -2 l
-5 -5 l
-2 -7 l
0 -7 l
22 50 m 4 -2 l
3 -2 l
2 -5 l
0 -5 l
-2 -5 l
-7 -5 l
-10 -5 l
-12 -16 m 2 2 l
5 0 l
12 -5 l
7 0 l
CS M
5 3 l
3 2 l
-27 0 m 12 -7 l
10 0 l
2 2 l
3 5 l
0 5 l
29 38 m -8 -2 l
-5 -7 l
-2 -12 l
0 -8 l
2 -12 l
5 -7 l
8 -2 l
4 0 l
8 2 l
4 7 l
3 12 l
0 8 l
-3 12 l
-4 7 l
-8 2 l
-4 0 l
-5 -2 l
-3 -2 l
-2 -5 l
-3 -12 l
0 -8 l
3 -12 l
2 -4 l
3 -3 l
5 -2 l
4 0 m 5 2 l
3 3 l
2 4 l
2 12 l
0 8 l
-2 12 l
-2 5 l
-3 2 l
-5 2 l
44 0 m -8 -2 l
-4 -7 l
-3 -12 l
0 -8 l
3 -12 l
4 -7 l
8 -2 l
4 0 l
8 2 l
4 7 l
3 12 l
0 8 l
-3 12 l
-4 7 l
-8 2 l
-4 0 l
-5 -2 l
-3 -2 l
-2 -5 l
-2 -12 l
0 -8 l
2 -12 l
2 -4 l
3 -3 l
5 -2 l
4 0 m 5 2 l
3 3 l
2 4 l
2 12 l
0 8 l
-2 12 l
-2 5 l
-3 2 l
-5 2 l
44 0 m -7 -2 l
-5 -7 l
-3 -12 l
0 -8 l
3 -12 l
5 -7 l
7 -2 l
5 0 l
7 2 l
5 7 l
2 12 l
0 8 l
-2 12 l
-5 7 l
-7 2 l
-5 0 l
-5 -2 l
-2 -2 l
-3 -5 l
-2 -12 l
0 -8 l
2 -12 l
3 -4 l
2 -3 l
5 -2 l
5 0 m 4 2 l
3 3 l
2 4 l
3 12 l
0 8 l
-3 12 l
-2 5 l
-3 2 l
-4 2 l
28 10 m 5 -5 l
5 -7 l
5 -10 l
2 -12 l
0 -9 l
-2 -12 l
-5 -10 l
-5 -7 l
-5 -5 l
5 72 m 5 -9 l
3 -8 l
2 -12 l
0 -9 l
-2 -12 l
-3 -8 l
-5 -9 l
CS [] 0 setdash M
CS [] 0 setdash M
67 1019 M 17 1031 M 50 0 l
17 1033 M 50 0 l
17 1023 M 0 25 l
2 7 l
5 5 l
5 2 l
7 2 l
12 0 l
7 -2 l
5 -2 l
5 -5 l
2 -7 l
0 -25 l
17 1048 M 2 4 l
5 5 l
5 3 l
7 2 l
12 0 l
7 -2 l
5 -3 l
5 -5 l
2 -4 l
-19 33 m 0 29 l
-5 0 l
-4 -2 l
-3 -3 l
-2 -5 l
0 -7 l
2 -7 l
5 -5 l
7 -2 l
5 0 l
7 2 l
5 5 l
2 7 l
0 5 l
-2 7 l
-5 5 l
-12 -2 m -7 0 l
-5 -3 l
-2 -12 m 2 -5 l
5 -4 l
7 -3 l
5 0 l
7 3 l
5 4 l
2 5 l
-26 60 m 2 -2 l
3 2 l
-3 3 l
-2 0 l
-5 -5 l
-2 -5 l
0 -7 l
2 -7 l
5 -5 l
7 -2 l
5 0 l
7 2 l
5 5 l
2 7 l
0 5 l
-2 7 l
-5 5 l
-26 -17 m 2 -5 l
5 -5 l
7 -2 l
5 0 l
7 2 l
5 5 l
2 5 l
7 1228 M 5 -5 l
7 -5 l
10 -4 l
12 -3 l
10 0 l
12 3 l
9 4 l
8 5 l
4 5 l
12 1223 M 10 -5 l
7 -2 l
12 -2 l
10 0 l
12 2 l
7 2 l
10 5 l
17 1259 M 41 0 l
7 -2 l
2 -5 l
0 -5 l
-2 -5 l
-5 -2 l
-5 0 l
-2 2 l
2 3 l
3 -3 l
17 1257 M 41 0 l
7 -2 l
2 -3 l
17 1250 M 0 17 l
10 14 m 2 2 l
2 -2 l
-2 -2 l
-2 0 l
-5 2 l
-3 2 l
-2 8 l
0 9 l
2 7 l
3 3 l
5 2 l
4 0 l
5 -2 l
5 -7 l
5 -12 l
2 -5 l
5 -5 l
7 -2 l
7 0 l
17 1300 M 2 5 l
3 2 l
5 3 l
4 0 l
5 -3 l
5 -7 l
5 -9 l
17 -12 m -3 2 l
0 5 l
5 12 l
0 7 l
-2 5 l
-3 2 l
0 -26 m 7 12 l
0 9 l
-2 3 l
-5 2 l
-5 0 l
17 1341 M 2 -7 l
8 -5 l
12 -2 l
7 0 l
12 2 l
7 5 l
2 7 l
0 5 l
-2 7 l
-7 5 l
-12 2 l
-7 0 l
-12 -2 l
-8 -5 l
-2 -7 l
0 -5 l
2 -5 l
3 -2 l
5 -2 l
12 -3 l
7 0 l
12 3 l
5 2 l
2 2 l
2 5 l
0 5 m -2 5 l
-2 2 l
-5 3 l
-12 2 l
-7 0 l
-12 -2 l
-5 -3 l
-3 -2 l
-2 -5 l
0 43 m 2 -7 l
8 -5 l
12 -2 l
CS M
7 0 l
12 2 l
7 5 l
2 7 l
0 5 l
-2 7 l
-7 5 l
-12 3 l
-7 0 l
-12 -3 l
-8 -5 l
-2 -7 l
0 -5 l
2 -5 l
3 -2 l
5 -2 l
12 -3 l
7 0 l
12 3 l
5 2 l
2 2 l
2 5 l
0 5 m -2 5 l
-2 2 l
-5 3 l
-12 2 l
-7 0 l
-12 -2 l
-5 -3 l
-3 -2 l
-2 -5 l
0 43 m 2 -7 l
8 -5 l
12 -2 l
7 0 l
12 2 l
7 5 l
2 7 l
0 5 l
-2 7 l
-7 5 l
-12 3 l
-7 0 l
-12 -3 l
-8 -5 l
-2 -7 l
0 -5 l
2 -4 l
3 -3 l
5 -2 l
12 -3 l
7 0 l
12 3 l
5 2 l
2 3 l
2 4 l
0 5 m -2 5 l
-2 2 l
-5 3 l
-12 2 l
-7 0 l
-12 -2 l
-5 -3 l
-3 -2 l
-2 -5 l
7 1471 M 5 5 l
7 5 l
10 5 l
12 2 l
10 0 l
12 -2 l
9 -5 l
8 -5 l
4 -5 l
12 1476 M 10 5 l
7 2 l
12 3 l
10 0 l
12 -3 l
7 -2 l
10 -5 l
CS [] 0 setdash M
 230 230 240 C
B
1206 775 M 1276 852 L
1554 1160 L
1903 1545 L
2261 1940 L
2261 2083 L
812 2083 L
812 2083 L
974 1545 L
1090 1160 L
1183 852 L
1206 775 L
CF M
 0 0 255 C
 180 190 190 C
B
1253 852 L
1438 1160 L
1671 1545 L
1996 2083 L
1206 2083 L
1206 1545 L
1206 1160 L
1206 852 L
1206 775 L
CF M
 0 0 255 C
CS [32 24] 0 setdash M
1276 852 M -93 0 l
371 308 m -464 0 l
813 385 m -929 0 l
1287 538 m 812 2083 L
CS [] 0 setdash M
CS M 5 100 mul 72 div dup setlinewidth
/P [ /moveto cvx 0 5 -1 roll .05 add dup -2 div 0 exch /rmoveto cvx /rlineto cvx /stroke cvx ] cvx def
CS M 5 100 mul 72 div dup setlinewidth
/P [ /moveto cvx 0 5 -1 roll .05 add dup -2 div 0 exch /rmoveto cvx /rlineto cvx /stroke cvx ] cvx def
1208 2127 M CS [] 0 setdash M
1208 2112 M 9 20 m 40 0 l
23 18 m 4 2 l
7 7 l
0 -47 l
-2 44 m 0 -44 l
-9 0 m 20 0 l
18 47 m 0 -14 l
0 5 m 2 4 l
5 5 l
4 0 l
11 -7 l
5 0 l
2 2 l
2 5 l
-29 -5 m 5 2 l
4 0 l
11 -4 l
9 7 m 0 -7 l
-2 -7 l
-9 -11 l
-2 -5 l
-2 -6 l
0 -11 l
13 33 m -11 -11 l
-2 -5 l
-3 -6 l
0 -11 l
45 47 m -7 -3 l
-4 -6 l
-2 -12 l
0 -6 l
2 -12 l
4 -6 l
7 -2 l
5 0 l
6 2 l
5 6 l
2 12 l
0 6 l
-2 12 l
-5 6 l
-6 3 l
-5 0 l
-4 -3 l
-3 -2 l
-2 -4 l
-2 -12 l
0 -6 l
2 -12 l
2 -4 l
3 -2 l
4 -2 l
5 0 m 4 2 l
2 2 l
3 4 l
2 12 l
0 6 l
-2 12 l
-3 4 l
-2 2 l
-4 3 l
67 0 m 0 -47 l
2 47 m 0 -47 l
23 31 m -23 -23 l
11 9 m 14 -17 l
-16 17 m 14 -17 l
-32 47 m 9 0 l
16 -16 m 13 0 l
-38 -31 m 16 0 l
9 0 m 13 0 l
14 31 m 13 -31 l
-11 31 m 11 -27 l
14 27 m -14 -31 l
-4 -10 l
-5 -4 l
-4 -2 l
-2 0 l
-3 2 l
3 2 l
2 -2 l
-5 45 m 14 0 l
9 0 m 13 0 l
14 0 m 0 -31 l
2 31 m 0 -31 l
0 17 m 2 7 l
5 5 l
4 2 l
7 0 l
2 -2 l
0 -3 l
-2 -2 l
-2 2 l
2 3 l
-27 2 m 9 0 l
-9 -31 m 16 0 l
18 0 m CS [] 0 setdash M
1208 1583 M CS [] 0 setdash M
1208 1567 M 9 20 m 40 0 l
23 18 m 4 3 l
7 6 l
0 -47 l
-2 45 m 0 -45 l
-9 0 m 20 0 l
31 47 m -6 -2 l
-5 -7 l
-2 -11 l
0 -7 l
2 -11 l
5 -7 l
6 -2 l
5 0 l
7 2 l
4 7 l
2 11 l
0 7 l
-2 11 l
-4 7 l
-7 2 l
-5 0 l
-4 -2 l
-2 -2 l
-3 -5 l
-2 -11 l
0 -7 l
2 -11 l
3 -4 l
2 -3 l
4 -2 l
5 0 m 4 2 l
3 3 l
2 4 l
2 11 l
0 7 l
-2 11 l
-2 5 l
-3 2 l
-4 2 l
40 0 m -7 -2 l
-4 -7 l
-2 -11 l
0 -7 l
2 -11 l
4 -7 l
7 -2 l
5 0 l
6 2 l
5 7 l
2 11 l
0 7 l
-2 11 l
-5 7 l
-6 2 l
-5 0 l
-4 -2 l
-3 -2 l
-2 -5 l
-2 -11 l
0 -7 l
2 -11 l
2 -4 l
3 -3 l
4 -2 l
5 0 m 4 2 l
2 3 l
3 4 l
2 11 l
0 7 l
-2 11 l
-3 5 l
-2 2 l
-4 2 l
67 0 m 0 -47 l
2 47 m 0 -47 l
23 32 m -23 -23 l
11 9 m 14 -18 l
-16 18 m 14 -18 l
-32 47 m 9 0 l
16 -15 m 13 0 l
-38 -32 m 16 0 l
9 0 m 13 0 l
14 32 m 13 -32 l
-11 32 m 11 -27 l
14 27 m -14 -32 l
-4 -9 l
-5 -4 l
-4 -3 l
-2 0 l
-3 3 l
3 2 l
2 -2 l
-5 45 m 14 0 l
9 0 m 13 0 l
14 0 m 0 -32 l
2 32 m 0 -32 l
0 18 m 2 7 l
5 4 l
4 3 l
7 0 l
2 -3 l
0 -2 l
-2 -2 l
-2 2 l
2 2 l
-27 3 m 9 0 l
-9 -32 m 16 0 l
18 0 m CS [] 0 setdash M
1208 1201 M CS [] 0 setdash M
1208 1185 M 9 20 m 40 0 l
20 27 m -4 -22 l
4 4 l
7 3 l
7 0 l
7 -3 l
4 -4 l
2 -7 l
0 -4 l
-2 -7 l
-4 -5 l
-7 -2 l
-7 0 l
-7 2 l
-2 3 l
-2 4 l
0 2 l
2 3 l
2 -3 l
-2 -2 l
16 23 m 5 -3 l
4 -4 l
2 -7 l
0 -4 l
-2 -7 l
-4 -5 l
-5 -2 l
-14 47 m 23 0 l
-23 -2 m 12 0 l
11 2 l
31 0 m -6 -2 l
-5 -7 l
-2 -11 l
0 -7 l
2 -11 l
5 -7 l
6 -2 l
5 0 l
7 2 l
4 7 l
2 11 l
0 7 l
-2 11 l
-4 7 l
-7 2 l
-5 0 l
-4 -2 l
-2 -2 l
-3 -5 l
-2 -11 l
0 -7 l
2 -11 l
3 -4 l
2 -3 l
4 -2 l
5 0 m 4 2 l
3 3 l
2 4 l
2 11 l
0 7 l
-2 11 l
-2 5 l
-3 2 l
-4 2 l
67 0 m 0 -47 l
2 47 m 0 -47 l
23 32 m -23 -23 l
12 9 m 13 -18 l
-16 18 m 14 -18 l
-32 47 m 9 0 l
16 -15 m 14 0 l
-39 -32 m 16 0 l
9 0 m 14 0 l
13 32 m 13 -32 l
-11 32 m 11 -27 l
14 27 m -14 -32 l
-4 -9 l
-5 -4 l
-4 -3 l
-2 0 l
-3 3 l
3 2 l
2 -2 l
-5 45 m 14 0 l
9 0 m 13 0 l
14 0 m 0 -32 l
2 32 m 0 -32 l
0 18 m 2 7 l
5 4 l
4 3 l
7 0 l
2 -3 l
0 -2 l
CS M
-2 -2 l
-2 2 l
2 2 l
-27 3 m 9 0 l
-9 -32 m 16 0 l
18 0 m CS [] 0 setdash M
1208 886 M CS [] 0 setdash M
1208 870 M 9 20 m 40 0 l
23 18 m 4 2 l
7 7 l
0 -47 l
-2 45 m 0 -45 l
-9 0 m 20 0 l
31 47 m -6 -2 l
-5 -7 l
-2 -11 l
0 -7 l
2 -11 l
5 -7 l
6 -2 l
5 0 l
7 2 l
4 7 l
2 11 l
0 7 l
-2 11 l
-4 7 l
-7 2 l
-5 0 l
-4 -2 l
-2 -2 l
-3 -5 l
-2 -11 l
0 -7 l
2 -11 l
3 -5 l
2 -2 l
4 -2 l
5 0 m 4 2 l
3 2 l
2 5 l
2 11 l
0 7 l
-2 11 l
-2 5 l
-3 2 l
-4 2 l
67 0 m 0 -47 l
2 47 m 0 -47 l
23 31 m -23 -22 l
12 9 m 13 -18 l
-16 18 m 14 -18 l
-32 47 m 9 0 l
16 -16 m 14 0 l
-39 -31 m 16 0 l
9 0 m 14 0 l
13 31 m 13 -31 l
-11 31 m 11 -27 l
14 27 m -14 -31 l
-4 -9 l
-5 -5 l
-4 -2 l
-2 0 l
-3 2 l
3 3 l
2 -3 l
-5 45 m 14 0 l
9 0 m 13 0 l
14 0 m 0 -31 l
2 31 m 0 -31 l
0 18 m 2 6 l
5 5 l
4 2 l
7 0 l
2 -2 l
0 -2 l
-2 -3 l
-2 3 l
2 2 l
-27 2 m 9 0 l
-9 -31 m 16 0 l
18 0 m CS [] 0 setdash M
1333 1908 M CS [] 0 setdash M
1353 1962 M 6 3 l
10 10 l
0 -67 l
-4 64 m 0 -64 l
-12 0 m 28 0 l
78 45 m -33 0 l
-9 -4 l
-7 -9 l
-3 -10 l
0 -10 l
3 -6 l
4 -3 l
6 -3 l
6 0 l
10 3 l
6 9 l
4 10 l
0 10 l
-4 6 l
-3 3 l
-6 4 l
-7 0 m -6 -4 l
-6 -9 l
-4 -10 l
0 -13 l
4 -6 l
12 -3 m 7 3 l
6 9 l
3 10 l
0 13 l
-3 6 l
20 0 l
19 -45 m -11 -41 l
13 41 m -11 -41 l
9 35 m -2 -12 l
0 -5 l
4 -4 l
4 0 l
4 2 l
4 4 l
4 5 l
4 16 m -6 -21 l
0 -4 l
2 -2 l
5 0 l
4 4 l
2 3 l
-6 20 m -5 -21 l
0 -4 l
2 -2 l
23 -3 m -4 -1 l
-2 -2 l
-1 -2 l
-1 -4 l
0 -3 l
1 -3 l
3 -1 l
3 0 l
2 1 l
3 4 l
3 3 l
2 5 l
1 3 l
-10 0 m -3 -1 l
-2 -2 l
-1 -2 l
-1 -4 l
0 -3 l
1 -3 l
2 -1 l
4 16 m 2 0 l
2 -1 l
1 -2 l
3 -9 l
1 -3 l
1 -1 l
-8 16 m 1 -1 l
1 -2 l
3 -9 l
1 -3 l
2 -1 l
1 0 l
4 50 m CS [] 0 setdash M
957 1908 M CS [] 0 setdash M
970 1962 M 3 -3 l
-3 -3 l
-3 3 l
0 3 l
3 7 l
3 3 l
10 3 l
13 0 l
9 -3 l
4 -3 l
3 -7 l
0 -6 l
-3 -7 l
-10 -6 l
-16 -7 l
-6 -3 l
-7 -6 l
-3 -10 l
0 -9 l
29 67 m 6 -3 l
3 -3 l
4 -7 l
0 -6 l
-4 -7 l
-9 -6 l
-13 -7 l
-16 -22 m 3 3 l
7 0 l
16 -6 l
9 0 l
7 3 l
3 3 l
-35 0 m 16 -9 l
12 0 l
4 3 l
3 6 l
0 7 l
70 29 m -32 0 l
-9 -4 l
-7 -9 l
-3 -10 l
0 -10 l
3 -6 l
4 -3 l
6 -3 l
6 0 l
10 3 l
6 9 l
4 10 l
0 10 l
-4 6 l
-3 3 l
-6 4 l
-7 0 m -6 -4 l
-6 -9 l
-4 -10 l
0 -13 l
4 -6 l
12 -3 m 7 3 l
6 9 l
3 10 l
0 13 l
-3 6 l
19 0 l
20 -45 m -11 -41 l
13 41 m -11 -41 l
9 35 m -2 -12 l
0 -5 l
4 -4 l
4 0 l
4 2 l
4 4 l
4 5 l
4 16 m -6 -21 l
0 -4 l
2 -2 l
5 0 l
4 4 l
2 3 l
-6 20 m -5 -21 l
0 -4 l
2 -2 l
23 -3 m -4 -1 l
-2 -2 l
-1 -2 l
-1 -4 l
0 -3 l
1 -3 l
3 -1 l
3 0 l
2 1 l
3 4 l
3 3 l
2 5 l
1 3 l
-10 0 m -3 -1 l
-2 -2 l
-1 -2 l
-1 -4 l
0 -3 l
1 -3 l
2 -1 l
4 16 m 2 0 l
2 -1 l
1 -2 l
3 -9 l
1 -3 l
1 -1 l
-8 16 m 1 -1 l
1 -2 l
3 -9 l
1 -3 l
2 -1 l
1 0 l
4 50 m CS [] 0 setdash M
 0 0 0 C
CS M 5 100 mul 72 div dup setlinewidth
/P [ /moveto cvx 0 5 -1 roll .05 add dup -2 div 0 exch /rmoveto cvx /rlineto cvx /stroke cvx ] cvx def
CS M 5 100 mul 72 div dup setlinewidth
/P [ /moveto cvx 0 5 -1 roll .05 add dup -2 div 0 exch /rmoveto cvx /rlineto cvx /stroke cvx ] cvx def
2055 449 M 31 8 l
29 17 l
23 23 l
17 28 l
8 32 l
0 33 l
-8 32 l
-17 28 l
-23 24 l
-29 16 l
-31 9 l
-33 0 l
-32 -9 l
-29 -16 l
-23 -24 l
-16 -28 l
-9 -32 l
0 -33 l
9 -32 l
16 -28 l
23 -23 l
29 -17 l
32 -8 l
33 0 l
-45 -43 m CS [] 0 setdash M
1776 383 M 38 40 m 2 -6 l
CS M
0 13 l
-2 -7 l
-5 5 l
-7 2 l
-4 0 l
-7 -2 l
-4 -5 l
-3 -4 l
-2 -7 l
0 -11 l
2 -7 l
3 -4 l
4 -5 l
7 -2 l
4 0 l
7 2 l
5 5 l
-16 40 m -5 -2 l
-4 -5 l
-2 -4 l
-3 -7 l
0 -11 l
3 -7 l
2 -4 l
4 -5 l
5 -2 l
16 18 m 0 -18 l
2 18 m 0 -18 l
-9 18 m 16 0 l
13 20 m 2 -2 l
-2 -2 l
-2 2 l
0 2 l
2 5 l
2 2 l
7 2 l
9 0 l
7 -2 l
2 -5 l
0 -6 l
-2 -5 l
-7 -2 l
-7 0 l
7 20 m 5 -2 l
2 -5 l
0 -6 l
-2 -5 l
-5 -2 l
5 -2 l
4 -5 l
2 -4 l
0 -7 l
-2 -5 l
-2 -2 l
-7 -2 l
-9 0 l
-7 2 l
-2 2 l
-2 5 l
0 2 l
2 2 l
2 -2 l
-2 -2 l
25 13 m 2 -6 l
0 -7 l
-2 -5 l
-2 -2 l
-5 -2 l
29 47 m -4 -22 l
4 4 l
7 2 l
7 0 l
6 -2 l
5 -4 l
2 -7 l
0 -5 l
-2 -6 l
-5 -5 l
-6 -2 l
-7 0 l
-7 2 l
-2 2 l
-2 5 l
0 2 l
2 2 l
2 -2 l
-2 -2 l
16 22 m 4 -2 l
5 -4 l
2 -7 l
0 -5 l
-2 -6 l
-5 -5 l
-4 -2 l
-14 47 m 23 0 l
-23 -2 m 11 0 l
12 2 l
38 -4 m 0 -43 l
2 47 m 0 -47 l
0 47 m -25 -34 l
36 0 l
-20 -13 m 16 0 l
20 4 m -2 -2 l
2 -2 l
2 2 l
-2 2 l
25 34 m 4 2 l
7 7 l
0 -47 l
-3 45 m 0 -45 l
-8 0 m 20 0 l
40 40 m 0 -40 l
-20 20 m 40 0 l
30 27 m -7 -2 l
-5 -7 l
-2 -11 l
0 -7 l
2 -11 l
5 -7 l
7 -2 l
4 0 l
7 2 l
4 7 l
2 11 l
0 7 l
-2 11 l
-4 7 l
-7 2 l
-4 0 l
-5 -2 l
-2 -2 l
-3 -5 l
-2 -11 l
0 -7 l
2 -11 l
3 -5 l
2 -2 l
5 -2 l
4 0 m 4 2 l
3 2 l
2 5 l
2 11 l
0 7 l
-2 11 l
-2 5 l
-3 2 l
-4 2 l
40 0 m -6 -2 l
-5 -7 l
-2 -11 l
0 -7 l
2 -11 l
5 -7 l
6 -2 l
5 0 l
7 2 l
4 7 l
2 11 l
0 7 l
-2 11 l
-4 7 l
-7 2 l
-5 0 l
-4 -2 l
-2 -2 l
-3 -5 l
-2 -11 l
0 -7 l
2 -11 l
3 -5 l
2 -2 l
4 -2 l
5 0 m 4 2 l
3 2 l
2 5 l
2 11 l
0 7 l
-2 11 l
-2 5 l
-3 2 l
-4 2 l
31 -43 m -2 -2 l
2 -2 l
2 2 l
-2 2 l
25 34 m 4 2 l
7 7 l
0 -47 l
-2 45 m 0 -45 l
-9 0 m 20 0 l
12 0 m CS [] 0 setdash M
 0 0 0 C
 34 139 34 C
903 475 M 42 11 l
36 22 l
31 30 l
21 37 l
11 41 l
0 43 l
-11 41 l
-21 37 l
-31 30 l
-36 21 l
-42 11 l
-42 0 l
-42 -11 l
-36 -21 l
-31 -30 l
-21 -37 l
-11 -41 l
0 -43 l
11 -41 l
21 -37 l
31 -30 l
36 -22 l
42 -11 l
42 0 l
-21 -49 m CS [] 0 setdash M
647 402 M 38 40 m 3 -6 l
0 13 l
-3 -7 l
-4 5 l
-7 2 l
-4 0 l
-7 -2 l
-5 -5 l
-2 -4 l
-2 -7 l
0 -11 l
2 -7 l
2 -4 l
5 -5 l
7 -2 l
4 0 l
7 2 l
4 5 l
-15 40 m -5 -2 l
-4 -5 l
-3 -4 l
-2 -7 l
0 -11 l
2 -7 l
3 -4 l
4 -5 l
5 -2 l
15 18 m 0 -18 l
3 18 m 0 -18 l
-9 18 m 15 0 l
14 20 m 2 -2 l
-2 -2 l
-2 2 l
0 2 l
2 5 l
2 2 l
7 2 l
9 0 l
7 -2 l
2 -5 l
0 -6 l
-2 -5 l
-7 -2 l
-7 0 l
7 20 m 4 -2 l
3 -5 l
0 -6 l
-3 -5 l
-4 -2 l
4 -2 l
5 -5 l
2 -4 l
0 -7 l
-2 -5 l
-2 -2 l
-7 -2 l
-9 0 l
-7 2 l
-2 2 l
-2 5 l
0 2 l
2 2 l
2 -2 l
-2 -2 l
25 13 m 2 -6 l
0 -7 l
-2 -5 l
-3 -2 l
-4 -2 l
29 47 m -5 -22 l
5 4 l
7 2 l
6 0 l
7 -2 l
5 -4 l
2 -7 l
0 -5 l
-2 -6 l
-5 -5 l
-7 -2 l
-6 0 l
-7 2 l
-2 2 l
-3 5 l
0 2 l
3 2 l
CS M
2 -2 l
-2 -2 l
15 22 m 5 -2 l
4 -4 l
3 -7 l
0 -5 l
-3 -6 l
-4 -5 l
-5 -2 l
-13 47 m 22 0 l
-22 -2 m 11 0 l
11 2 l
39 -4 m 0 -43 l
2 47 m 0 -47 l
0 47 m -25 -34 l
36 0 l
-20 -13 m 15 0 l
21 4 m -3 -2 l
3 -2 l
2 2 l
-2 2 l
29 43 m -7 -2 l
-2 -5 l
0 -6 l
2 -5 l
7 -2 l
9 0 l
6 2 l
3 5 l
0 6 l
-3 5 l
-6 2 l
-9 0 l
-5 -2 l
-2 -5 l
0 -6 l
2 -5 l
5 -2 l
9 0 m 4 2 l
2 5 l
0 6 l
-2 5 l
-4 2 l
-9 -20 m -7 -2 l
-2 -3 l
-2 -4 l
0 -9 l
2 -5 l
2 -2 l
7 -2 l
9 0 l
6 2 l
3 2 l
2 5 l
0 9 l
-2 4 l
-3 3 l
-6 2 l
-9 0 m -5 -2 l
-2 -3 l
-2 -4 l
0 -9 l
2 -5 l
2 -2 l
5 -2 l
9 0 m 4 2 l
2 2 l
3 5 l
0 9 l
-3 4 l
-2 3 l
-4 2 l
27 -7 m 40 0 l
29 27 m -7 -2 l
-4 -7 l
-2 -11 l
0 -7 l
2 -11 l
4 -7 l
7 -2 l
5 0 l
6 2 l
5 7 l
2 11 l
0 7 l
-2 11 l
-5 7 l
-6 2 l
-5 0 l
-4 -2 l
-3 -2 l
-2 -5 l
-2 -11 l
0 -7 l
2 -11 l
2 -5 l
3 -2 l
4 -2 l
5 0 m 4 2 l
2 2 l
3 5 l
2 11 l
0 7 l
-2 11 l
-3 5 l
-2 2 l
-4 2 l
40 0 m -7 -2 l
-4 -7 l
-2 -11 l
0 -7 l
2 -11 l
4 -7 l
7 -2 l
5 0 l
6 2 l
5 7 l
2 11 l
0 7 l
-2 11 l
-5 7 l
-6 2 l
-5 0 l
-4 -2 l
-3 -2 l
-2 -5 l
-2 -11 l
0 -7 l
2 -11 l
2 -5 l
3 -2 l
4 -2 l
5 0 m 4 2 l
2 2 l
3 5 l
2 11 l
0 7 l
-2 11 l
-3 5 l
-2 2 l
-4 2 l
31 -43 m -2 -2 l
2 -2 l
2 2 l
-2 2 l
29 43 m -7 -2 l
-2 -5 l
0 -6 l
2 -5 l
7 -2 l
9 0 l
7 2 l
2 5 l
0 6 l
-2 5 l
-7 2 l
-9 0 l
-4 -2 l
-3 -5 l
0 -6 l
3 -5 l
4 -2 l
9 0 m 5 2 l
2 5 l
0 6 l
-2 5 l
-5 2 l
-9 -20 m -7 -2 l
-2 -3 l
-2 -4 l
0 -9 l
2 -5 l
2 -2 l
7 -2 l
9 0 l
7 2 l
2 2 l
2 5 l
0 9 l
-2 4 l
-2 3 l
-7 2 l
-9 0 m -4 -2 l
-3 -3 l
-2 -4 l
0 -9 l
2 -5 l
3 -2 l
4 -2 l
9 0 m 5 2 l
2 2 l
2 5 l
0 9 l
-2 4 l
-2 3 l
-5 2 l
19 -27 m CS [] 0 setdash M
 0 0 0 C
1883 1648 M 51 14 l
45 26 l
37 37 l
26 45 l
14 51 l
0 52 l
-14 51 l
-26 45 l
-37 37 l
-45 27 l
-51 13 l
-52 0 l
-51 -13 l
-45 -27 l
-37 -37 l
-26 -45 l
-14 -51 l
0 -52 l
14 -51 l
26 -45 l
37 -37 l
45 -26 l
51 -14 l
52 0 l
-26 -40 m CS [] 0 setdash M
1622 1585 M 38 40 m 3 -7 l
0 14 l
-3 -7 l
-4 5 l
-7 2 l
-4 0 l
-7 -2 l
-5 -5 l
-2 -4 l
-2 -7 l
0 -11 l
2 -7 l
2 -5 l
5 -4 l
7 -2 l
4 0 l
7 2 l
4 4 l
-15 41 m -5 -2 l
-4 -5 l
-3 -4 l
-2 -7 l
0 -11 l
2 -7 l
3 -5 l
4 -4 l
5 -2 l
15 18 m 0 -18 l
3 18 m 0 -18 l
-9 18 m 15 0 l
14 20 m 2 -2 l
-2 -3 l
-2 3 l
0 2 l
2 4 l
2 3 l
7 2 l
9 0 l
7 -2 l
2 -5 l
0 -7 l
-2 -4 l
-7 -2 l
-7 0 l
7 20 m 4 -2 l
3 -5 l
0 -7 l
-3 -4 l
-4 -2 l
4 -3 l
5 -4 l
2 -5 l
0 -6 l
-2 -5 l
-2 -2 l
-7 -2 l
-9 0 l
-7 2 l
-2 2 l
-2 5 l
0 2 l
2 2 l
2 -2 l
-2 -2 l
25 13 m 2 -7 l
0 -6 l
-2 -5 l
-3 -2 l
-4 -2 l
29 47 m -5 -23 l
5 5 l
7 2 l
6 0 l
7 -2 l
5 -5 l
2 -6 l
0 -5 l
-2 -7 l
-5 -4 l
-7 -2 l
CS M
-6 0 l
-7 2 l
-2 2 l
-3 5 l
0 2 l
3 2 l
2 -2 l
-2 -2 l
15 22 m 5 -2 l
4 -5 l
3 -6 l
0 -5 l
-3 -7 l
-4 -4 l
-5 -2 l
-13 47 m 22 0 l
-22 -2 m 11 0 l
11 2 l
23 0 m -5 -23 l
5 5 l
7 2 l
6 0 l
7 -2 l
5 -5 l
2 -6 l
0 -5 l
-2 -7 l
-5 -4 l
-7 -2 l
-6 0 l
-7 2 l
-2 2 l
-3 5 l
0 2 l
3 2 l
2 -2 l
-2 -2 l
15 22 m 5 -2 l
4 -5 l
3 -6 l
0 -5 l
-3 -7 l
-4 -4 l
-5 -2 l
-13 47 m 22 0 l
-22 -2 m 11 0 l
11 2 l
23 -43 m -3 -2 l
3 -2 l
2 2 l
-2 2 l
38 38 m 0 -42 l
2 47 m 0 -47 l
0 47 m -25 -34 l
36 0 l
-20 -13 m 16 0 l
38 40 m 0 -40 l
-20 20 m 40 0 l
29 27 m -7 -2 l
-4 -7 l
-2 -11 l
0 -7 l
2 -11 l
4 -7 l
7 -2 l
5 0 l
7 2 l
4 7 l
2 11 l
0 7 l
-2 11 l
-4 7 l
-7 2 l
-5 0 l
-4 -2 l
-3 -3 l
-2 -4 l
-2 -11 l
0 -7 l
2 -11 l
2 -5 l
3 -2 l
4 -2 l
5 0 m 4 2 l
3 2 l
2 5 l
2 11 l
0 7 l
-2 11 l
-2 4 l
-3 3 l
-4 2 l
40 0 m -7 -2 l
-4 -7 l
-2 -11 l
0 -7 l
2 -11 l
4 -7 l
7 -2 l
5 0 l
6 2 l
5 7 l
2 11 l
0 7 l
-2 11 l
-5 7 l
-6 2 l
-5 0 l
-4 -2 l
-3 -3 l
-2 -4 l
-2 -11 l
0 -7 l
2 -11 l
2 -5 l
3 -2 l
4 -2 l
5 0 m 4 2 l
2 2 l
3 5 l
2 11 l
0 7 l
-2 11 l
-3 4 l
-2 3 l
-4 2 l
31 -43 m -2 -2 l
2 -2 l
2 2 l
-2 2 l
18 43 m 0 -14 l
0 5 m 2 4 l
5 5 l
4 0 l
11 -7 l
5 0 l
2 2 l
2 5 l
-29 -5 m 5 3 l
4 0 l
11 -5 l
9 7 m 0 -7 l
-2 -7 l
-9 -11 l
-2 -4 l
-2 -7 l
0 -11 l
13 33 m -11 -11 l
-2 -4 l
-3 -7 l
0 -11 l
26 0 m CS [] 0 setdash M
 0 0 0 C
1045 1582 M 19 5 l
17 10 l
13 14 l
10 17 l
5 18 l
0 20 l
-5 19 l
-10 17 l
-13 13 l
-17 10 l
-19 5 l
-20 0 l
-18 -5 l
-17 -10 l
-14 -13 l
-10 -17 l
-5 -19 l
0 -20 l
5 -18 l
10 -17 l
14 -14 l
17 -10 l
18 -5 l
20 0 l
-326 74 m CS [] 0 setdash M
484 1633 M 38 40 m 3 -7 l
0 14 l
-3 -7 l
-4 4 l
-7 3 l
-4 0 l
-7 -3 l
-5 -4 l
-2 -5 l
-2 -6 l
0 -12 l
2 -6 l
2 -5 l
5 -4 l
7 -2 l
4 0 l
7 2 l
4 4 l
-15 41 m -5 -3 l
-4 -4 l
-3 -5 l
-2 -6 l
0 -12 l
2 -6 l
3 -5 l
4 -4 l
5 -2 l
15 17 m 0 -17 l
3 17 m 0 -17 l
-9 17 m 15 0 l
14 21 m 2 -3 l
-2 -2 l
-2 2 l
0 3 l
2 4 l
2 2 l
7 3 l
9 0 l
7 -3 l
2 -4 l
0 -7 l
-2 -4 l
-7 -3 l
-7 0 l
7 21 m 4 -3 l
3 -4 l
0 -7 l
-3 -4 l
-4 -3 l
4 -2 l
5 -4 l
2 -5 l
0 -6 l
-2 -5 l
-2 -2 l
-7 -2 l
-9 0 l
-7 2 l
-2 2 l
-2 5 l
0 2 l
2 2 l
2 -2 l
-2 -2 l
25 13 m 2 -7 l
0 -6 l
-2 -5 l
-3 -2 l
-4 -2 l
29 47 m -4 -23 l
4 5 l
7 2 l
6 0 l
7 -2 l
5 -5 l
2 -7 l
0 -4 l
-2 -7 l
-5 -4 l
-7 -2 l
-6 0 l
-7 2 l
-2 2 l
-2 5 l
0 2 l
2 2 l
2 -2 l
-2 -2 l
15 22 m 5 -2 l
4 -5 l
3 -7 l
0 -4 l
-3 -7 l
-4 -4 l
-5 -2 l
-13 47 m 22 0 l
-22 -3 m 11 0 l
11 3 l
23 0 m -5 -23 l
5 5 l
7 2 l
6 0 l
7 -2 l
5 -5 l
2 -7 l
0 -4 l
-2 -7 l
-5 -4 l
-7 -2 l
-6 0 l
-7 2 l
-2 2 l
-3 5 l
0 2 l
3 2 l
2 -2 l
-2 -2 l
15 22 m 5 -2 l
4 -5 l
3 -7 l
0 -4 l
-3 -7 l
-4 -4 l
-5 -2 l
-13 47 m 22 0 l
CS M
-22 -3 m 11 0 l
11 3 l
23 -43 m -3 -2 l
3 -2 l
2 2 l
-2 2 l
45 36 m -3 -2 l
3 -3 l
2 3 l
0 2 l
-2 4 l
-5 3 l
-7 0 l
-6 -3 l
-5 -4 l
-2 -5 l
-2 -9 l
0 -13 l
2 -7 l
4 -4 l
7 -2 l
5 0 l
6 2 l
5 4 l
2 7 l
0 2 l
-2 7 l
-5 4 l
-6 3 l
-3 0 l
-6 -3 l
-5 -4 l
-2 -7 l
13 32 m -4 -3 l
-5 -4 l
-2 -5 l
-2 -9 l
0 -13 l
2 -7 l
5 -4 l
4 -2 l
5 0 m 4 2 l
5 4 l
2 7 l
0 2 l
-2 7 l
-5 4 l
-4 3 l
29 -9 m 40 0 l
29 27 m -6 -3 l
-5 -6 l
-2 -12 l
0 -6 l
2 -11 l
5 -7 l
6 -2 l
5 0 l
7 2 l
4 7 l
2 11 l
0 6 l
-2 12 l
-4 6 l
-7 3 l
-5 0 l
-4 -3 l
-2 -2 l
-3 -4 l
-2 -12 l
0 -6 l
2 -11 l
3 -5 l
2 -2 l
4 -2 l
5 0 m 4 2 l
3 2 l
2 5 l
2 11 l
0 6 l
-2 12 l
-2 4 l
-3 2 l
-4 3 l
40 0 m -7 -3 l
-4 -6 l
-2 -12 l
0 -6 l
2 -11 l
4 -7 l
7 -2 l
5 0 l
6 2 l
5 7 l
2 11 l
0 6 l
-2 12 l
-5 6 l
-6 3 l
-5 0 l
-4 -3 l
-3 -2 l
-2 -4 l
-2 -12 l
0 -6 l
2 -11 l
2 -5 l
3 -2 l
4 -2 l
5 0 m 4 2 l
2 2 l
3 5 l
2 11 l
0 6 l
-2 12 l
-3 4 l
-2 2 l
-4 3 l
31 -43 m -2 -2 l
2 -2 l
2 2 l
-2 2 l
31 43 m -6 -3 l
-5 -6 l
-2 -12 l
0 -6 l
2 -11 l
5 -7 l
6 -2 l
5 0 l
7 2 l
4 7 l
2 11 l
0 6 l
-2 12 l
-4 6 l
-7 3 l
-5 0 l
-4 -3 l
-2 -2 l
-3 -4 l
-2 -12 l
0 -6 l
2 -11 l
3 -5 l
2 -2 l
4 -2 l
5 0 m 4 2 l
3 2 l
2 5 l
2 11 l
0 6 l
-2 12 l
-2 4 l
-3 2 l
-4 3 l
21 -47 m CS [] 0 setdash M
 0 0 0 C
492 1900 M 27 7 l
24 14 l
20 20 l
14 24 l
8 27 l
0 28 l
-8 27 l
-14 25 l
-20 19 l
-24 14 l
-27 8 l
-28 0 l
-27 -8 l
-24 -14 l
-20 -19 l
-14 -25 l
-7 -27 l
0 -28 l
7 -27 l
14 -24 l
20 -20 l
24 -14 l
27 -7 l
28 0 l
14 261 m CS [] 0 setdash M
271 2138 M 38 40 m 3 -6 l
0 13 l
-3 -7 l
-4 5 l
-7 2 l
-4 0 l
-7 -2 l
-5 -5 l
-2 -4 l
-2 -7 l
0 -11 l
2 -7 l
2 -4 l
5 -5 l
7 -2 l
4 0 l
7 2 l
4 5 l
-15 40 m -5 -2 l
-4 -5 l
-3 -4 l
-2 -7 l
0 -11 l
2 -7 l
3 -4 l
4 -5 l
5 -2 l
15 18 m 0 -18 l
3 18 m 0 -18 l
-9 18 m 15 0 l
14 20 m 2 -2 l
-2 -2 l
-2 2 l
0 2 l
2 5 l
2 2 l
7 2 l
9 0 l
6 -2 l
3 -5 l
0 -6 l
-3 -5 l
-6 -2 l
-7 0 l
7 20 m 4 -2 l
2 -5 l
0 -6 l
-2 -5 l
-4 -2 l
4 -2 l
5 -5 l
2 -4 l
0 -7 l
-2 -5 l
-3 -2 l
-6 -2 l
-9 0 l
-7 2 l
-2 2 l
-2 5 l
0 2 l
2 2 l
2 -2 l
-2 -2 l
24 13 m 3 -6 l
0 -7 l
-3 -5 l
-2 -2 l
-4 -2 l
29 47 m -5 -22 l
5 4 l
7 2 l
6 0 l
7 -2 l
5 -4 l
2 -7 l
0 -5 l
-2 -6 l
-5 -5 l
-7 -2 l
-6 0 l
-7 2 l
-2 2 l
-3 5 l
0 2 l
3 2 l
2 -2 l
-2 -2 l
15 22 m 5 -2 l
4 -4 l
3 -7 l
0 -5 l
-3 -6 l
-4 -5 l
-5 -2 l
-13 47 m 22 0 l
-22 -2 m 11 0 l
11 2 l
45 -7 m -2 -2 l
2 -2 l
2 2 l
0 2 l
-2 5 l
-4 2 l
-7 0 l
-7 -2 l
-4 -5 l
-2 -4 l
-3 -9 l
0 -14 l
3 -6 l
4 -5 l
7 -2 l
4 0 l
7 2 l
4 5 l
3 6 l
0 3 l
-3 6 l
-4 5 l
-7 2 l
CS M
-2 0 l
-7 -2 l
-4 -5 l
-2 -6 l
13 31 m -5 -2 l
-4 -5 l
-2 -4 l
-2 -9 l
0 -14 l
2 -6 l
4 -5 l
5 -2 l
4 0 m 5 2 l
4 5 l
2 6 l
0 3 l
-2 6 l
-4 5 l
-5 2 l
32 -25 m -3 -2 l
3 -2 l
2 2 l
-2 2 l
20 34 m 2 -2 l
-2 -2 l
-3 2 l
0 2 l
3 5 l
2 2 l
7 2 l
9 0 l
6 -2 l
3 -5 l
0 -6 l
-3 -5 l
-6 -2 l
-7 0 l
7 20 m 4 -2 l
2 -5 l
0 -6 l
-2 -5 l
-4 -2 l
4 -2 l
5 -5 l
2 -4 l
0 -7 l
-2 -5 l
-3 -2 l
-6 -2 l
-9 0 l
-7 2 l
-2 2 l
-3 5 l
0 2 l
3 2 l
2 -2 l
-2 -2 l
24 13 m 3 -6 l
0 -7 l
-3 -5 l
-2 -2 l
-4 -2 l
27 20 m 40 0 l
29 27 m -7 -2 l
-4 -7 l
-2 -11 l
0 -7 l
2 -11 l
4 -7 l
7 -2 l
5 0 l
6 2 l
5 7 l
2 11 l
0 7 l
-2 11 l
-5 7 l
-6 2 l
-5 0 l
-4 -2 l
-3 -2 l
-2 -5 l
-2 -11 l
0 -7 l
2 -11 l
2 -5 l
3 -2 l
4 -2 l
5 0 m 4 2 l
2 2 l
3 5 l
2 11 l
0 7 l
-2 11 l
-3 5 l
-2 2 l
-4 2 l
40 0 m -7 -2 l
-4 -7 l
-2 -11 l
0 -7 l
2 -11 l
4 -7 l
7 -2 l
4 0 l
7 2 l
5 7 l
2 11 l
0 7 l
-2 11 l
-5 7 l
-7 2 l
-4 0 l
-4 -2 l
-3 -2 l
-2 -5 l
-2 -11 l
0 -7 l
2 -11 l
2 -5 l
3 -2 l
4 -2 l
4 0 m 5 2 l
2 2 l
2 5 l
3 11 l
0 7 l
-3 11 l
-2 5 l
-2 2 l
-5 2 l
32 -43 m -2 -2 l
2 -2 l
2 2 l
-2 2 l
20 34 m 2 -2 l
-2 -2 l
-2 2 l
0 2 l
2 5 l
2 2 l
7 2 l
9 0 l
7 -2 l
2 -5 l
0 -6 l
-2 -5 l
-7 -2 l
-7 0 l
7 20 m 5 -2 l
2 -5 l
0 -6 l
-2 -5 l
-5 -2 l
5 -2 l
4 -5 l
2 -4 l
0 -7 l
-2 -5 l
-2 -2 l
-7 -2 l
-9 0 l
-7 2 l
-2 2 l
-2 5 l
0 2 l
2 2 l
2 -2 l
-2 -2 l
25 13 m 2 -6 l
0 -7 l
-2 -5 l
-2 -2 l
-5 -2 l
19 0 m CS [] 0 setdash M
 0 0 0 C
 0 0 255 C
B
1209 757 M 1213 758 L
1218 760 L
1221 764 L
1223 768 L
1225 773 L
1225 778 L
1223 782 L
1221 787 L
1218 790 L
1213 792 L
1209 794 L
1204 794 L
1199 792 L
1195 790 L
1191 787 L
1189 782 L
1188 778 L
1188 773 L
1189 768 L
1191 764 L
1195 760 L
1199 758 L
1204 757 L
1209 757 L
CF M
-76 -24 m CS [] 0 setdash M
1133 686 M 47 47 m 0 -47 l
2 47 m 0 -47 l
-9 47 m 27 0 l
7 -2 l
2 -3 l
2 -4 l
0 -7 l
-2 -4 l
-2 -3 l
-7 -2 l
-18 0 l
18 25 m 5 -2 l
2 -3 l
2 -4 l
0 -7 l
-2 -4 l
-2 -3 l
-5 -2 l
-27 -22 m 16 0 l
65 40 m 2 7 l
0 -14 l
-2 7 l
-5 5 l
-6 2 l
-7 0 l
-7 -2 l
-4 -5 l
0 -4 l
2 -5 l
2 -2 l
5 -2 l
13 -5 l
5 -2 l
4 -5 l
-31 21 m 4 -5 l
5 -2 l
13 -5 l
5 -2 l
2 -2 l
2 -5 l
0 -9 l
-4 -4 l
-7 -2 l
-7 0 l
-7 2 l
-4 4 l
-2 7 l
0 -13 l
2 6 l
47 41 m 0 -47 l
2 47 m 0 -47 l
-9 47 m 27 0 l
7 -2 l
2 -3 l
3 -4 l
0 -5 l
-3 -4 l
-2 -2 l
-7 -3 l
-18 0 l
18 23 m 5 -2 l
2 -3 l
2 -4 l
0 -5 l
-2 -4 l
-2 -2 l
-5 -3 l
-27 -24 m 16 0 l
5 24 m 4 -2 l
2 -2 l
7 -16 l
2 -2 l
3 0 l
2 2 l
-16 18 m 2 -4 l
5 -16 l
2 -2 l
5 0 l
2 4 l
0 2 l
63 41 m 0 -38 l
-3 -7 l
-4 -2 l
-5 0 l
-4 2 l
-2 4 l
0 5 l
2 2 l
2 -2 l
-2 -2 l
13 38 m 0 -38 l
-2 -7 l
-2 -2 l
-2 47 m 15 0 l
18 -9 m 5 2 l
6 7 l
0 -47 l
-2 45 m 0 -45 l
-9 0 m 20 0 l
18 47 m 0 -14 l
0 5 m 3 4 l
4 5 l
5 0 l
11 -7 l
4 0 l
3 2 l
2 5 l
-29 -5 m 4 3 l
5 0 l
11 -5 l
9 7 m 0 -7 l
-2 -7 l
-9 -11 l
-3 -4 l
-2 -7 l
0 -11 l
14 33 m -12 -11 l
-2 -4 l
-2 -7 l
0 -11 l
33 38 m 3 -2 l
-3 -3 l
-2 3 l
0 2 l
2 4 l
3 3 l
6 2 l
9 0 l
7 -2 l
2 -5 l
0 -7 l
-2 -4 l
-7 -2 l
-6 0 l
6 20 m 5 -2 l
2 -5 l
0 -7 l
-2 -4 l
-5 -2 l
5 -3 l
4 -4 l
3 -5 l
0 -6 l
-3 -5 l
-2 -2 l
-7 -2 l
-9 0 l
-6 2 l
-3 2 l
-2 5 l
0 2 l
2 2 l
3 -2 l
-3 -2 l
25 13 m 2 -7 l
0 -6 l
-2 -5 l
-2 -2 l
-5 -2 l
45 42 m 0 -42 l
3 47 m 0 -47 l
0 47 m -25 -34 l
36 0 l
-20 -13 m 15 0 l
18 20 m 41 0 l
18 18 m 2 -2 l
-2 -3 l
-3 3 l
0 2 l
3 4 l
2 3 l
7 2 l
8 0 l
7 -2 l
2 -5 l
0 -7 l
-2 -4 l
-7 -2 l
-6 0 l
6 20 m 5 -2 l
2 -5 l
0 -7 l
-2 -4 l
-5 -2 l
5 -3 l
4 -4 l
3 -5 l
0 -6 l
-3 -5 l
-2 -2 l
-7 -2 l
-8 0 l
-7 2 l
-2 2 l
-3 5 l
0 2 l
3 2 l
2 -2 l
-2 -2 l
24 13 m 2 -7 l
0 -6 l
-2 -5 l
-2 -2 l
-5 -2 l
27 38 m 3 -2 l
-3 -3 l
-2 3 l
0 2 l
2 4 l
3 3 l
6 2 l
9 0 l
7 -2 l
2 -5 l
0 -7 l
-2 -4 l
-7 -2 l
-6 0 l
6 20 m 5 -2 l
2 -5 l
0 -7 l
-2 -4 l
-5 -2 l
5 -3 l
4 -4 l
3 -5 l
0 -6 l
-3 -5 l
-2 -2 l
-7 -2 l
-9 0 l
-6 2 l
-3 2 l
-2 5 l
0 2 l
2 2 l
3 -2 l
-3 -2 l
25 13 m 2 -7 l
0 -6 l
-2 -5 l
-2 -2 l
-5 -2 l
27 38 m 2 -2 l
-2 -3 l
-2 3 l
0 2 l
2 4 l
2 3 l
7 2 l
9 0 l
7 -2 l
2 -5 l
0 -7 l
-2 -4 l
-7 -2 l
-7 0 l
7 20 m 5 -2 l
2 -5 l
0 -7 l
-2 -4 l
-5 -2 l
5 -3 l
4 -4 l
2 -5 l
0 -6 l
-2 -5 l
-2 -2 l
-7 -2 l
-9 0 l
-7 2 l
-2 2 l
-2 5 l
0 2 l
2 2 l
2 -2 l
-2 -2 l
25 13 m 2 -7 l
0 -6 l
-2 -5 l
-2 -2 l
-5 -2 l
27 38 m 2 -2 l
-2 -3 l
-2 3 l
0 2 l
2 4 l
2 3 l
7 2 l
9 0 l
7 -2 l
2 -5 l
0 -7 l
-2 -4 l
-7 -2 l
-7 0 l
7 20 m 5 -2 l
2 -5 l
0 -7 l
-2 -4 l
CS M
-5 -2 l
5 -3 l
4 -4 l
2 -5 l
0 -6 l
-2 -5 l
-2 -2 l
-7 -2 l
-9 0 l
-7 2 l
-2 2 l
-2 5 l
0 2 l
2 2 l
2 -2 l
-2 -2 l
25 13 m 2 -7 l
0 -6 l
-2 -5 l
-2 -2 l
-5 -2 l
19 0 m CS [] 0 setdash M
 0 0 0 C
CS M 5 100 mul 72 div dup setlinewidth
/P [ /moveto cvx 0 5 -1 roll .05 add dup -2 div 0 exch /rmoveto cvx /rlineto cvx /stroke cvx ] cvx def
CS [] 0 setdash M
255 255 M 2006 0 l
0 2006 l
255 2261 L
255 255 L
2006 0 l
255 255 M 2006 0 l
255 255 M 0 34 l
209 -34 m 0 17 l
209 -17 m 0 17 l
209 -17 m 0 34 l
209 -34 m 0 17 l
209 -17 m 0 17 l
209 -17 m 0 34 l
209 -34 m 0 17 l
209 -17 m 0 17 l
209 -17 m 0 34 l
255 2261 M 2006 0 l
255 2261 M 0 -34 l
209 34 m 0 -17 l
209 17 m 0 -17 l
209 17 m 0 -34 l
209 34 m 0 -17 l
209 17 m 0 -17 l
209 17 m 0 -34 l
209 34 m 0 -17 l
209 17 m 0 -17 l
209 17 m 0 -34 l
255 255 M 0 2006 l
255 351 M 34 0 l
-34 159 m 17 0 l
-17 159 m 17 0 l
-17 159 m 34 0 l
-34 160 m 17 0 l
-17 159 m 17 0 l
-17 159 m 34 0 l
-34 159 m 17 0 l
-17 159 m 17 0 l
-17 159 m 34 0 l
-34 160 m 17 0 l
-17 159 m 17 0 l
-17 159 m 34 0 l
2261 255 M 0 2006 l
2261 351 M -34 0 l
34 159 m -17 0 l
17 159 m -17 0 l
17 159 m -34 0 l
34 160 m -17 0 l
17 159 m -17 0 l
17 159 m -34 0 l
34 159 m -17 0 l
17 159 m -17 0 l
17 159 m -34 0 l
34 160 m -17 0 l
17 159 m -17 0 l
17 159 m -34 0 l
CS [] 0 setdash M
 0 0 0 C
CS [] 0 setdash M
CS M 1 100 mul 72 div dup setlinewidth
/P [ /moveto cvx 0 5 -1 roll .05 add dup -2 div 0 exch /rmoveto cvx /rlineto cvx /stroke cvx ] cvx def
stroke
grestore
showpage
end
