\relax 
\providecommand\hyper@newdestlabel[2]{}
\providecommand\HyperFirstAtBeginDocument{\AtBeginDocument}
\HyperFirstAtBeginDocument{\ifx\hyper@anchor\@undefined
\global\let\oldcontentsline\contentsline
\gdef\contentsline#1#2#3#4{\oldcontentsline{#1}{#2}{#3}}
\global\let\oldnewlabel\newlabel
\gdef\newlabel#1#2{\newlabelxx{#1}#2}
\gdef\newlabelxx#1#2#3#4#5#6{\oldnewlabel{#1}{{#2}{#3}}}
\AtEndDocument{\ifx\hyper@anchor\@undefined
\let\contentsline\oldcontentsline
\let\newlabel\oldnewlabel
\fi}
\fi}
\global\let\hyper@last\relax 
\gdef\HyperFirstAtBeginDocument#1{#1}
\providecommand\HyField@AuxAddToFields[1]{}
\providecommand\HyField@AuxAddToCoFields[2]{}
\newlabel{FirstPage}{{}{1}{}{Doc-Start}{}}
\@writefile{toc}{\contentsline {section}{\numberline {1}Reference sources}{1}{section.1}\protected@file@percent }
\newlabel{fig:sources}{{2}{2}{Reference sources}{figure.2}{}}
\newlabel{tab:sources15}{{1}{6}{Reference sources}{table.1}{}}
\newlabel{tab:sources19}{{2}{6}{Reference sources}{table.2}{}}
\@writefile{toc}{\contentsline {section}{\numberline {2}Method and result}{7}{section.2}\protected@file@percent }
\@writefile{toc}{\contentsline {section}{\numberline {3}Result}{7}{section.3}\protected@file@percent }
\newlabel{tab:result}{{3}{7}{Result}{table.3}{}}
\bibstyle{aasjournal}
\newlabel{fig:offsets}{{6}{8}{}{figure.6}{}}
\newlabel{fig:offsets2}{{7}{9}{}{figure.7}{}}
\newlabel{LastPage}{{}{9}{}{}{}}
